^C:\CICD\GITREPO_4\INHERITANCE\INHERITANCE\INHERITANCE.RC
C:\CICD\GITREPO_4\INHERITANCE\INHERITANCE\RESOURCE.H
C:\CICD\GITREPO_4\INHERITANCE\INHERITANCE\TARGETVER.H
C:\PROGRAM FILES (X86)\WINDOWS KITS\8.1\INCLUDE\SHARED\SDKDDKVER.H
C:\PROGRAM FILES (X86)\MICROSOFT VISUAL STUDIO 14.0\VC\ATLMFC\INCLUDE\AFXRES.H
C:\PROGRAM FILES (X86)\WINDOWS KITS\8.1\INCLUDE\UM\WINRES.H
C:\PROGRAM FILES (X86)\WINDOWS KITS\8.1\INCLUDE\UM\WINRESRC.H
C:\PROGRAM FILES (X86)\WINDOWS KITS\8.1\INCLUDE\UM\WINUSER.RH
C:\PROGRAM FILES (X86)\WINDOWS KITS\8.1\INCLUDE\UM\COMMCTRL.RH
C:\PROGRAM FILES (X86)\WINDOWS KITS\8.1\INCLUDE\UM\DDE.RH
C:\PROGRAM FILES (X86)\WINDOWS KITS\8.1\INCLUDE\UM\WINNT.RH
C:\PROGRAM FILES (X86)\WINDOWS KITS\8.1\INCLUDE\UM\DLGS.H
C:\PROGRAM FILES (X86)\WINDOWS KITS\8.1\INCLUDE\SHARED\WINAPIFAMILY.H
C:\PROGRAM FILES (X86)\WINDOWS KITS\8.1\INCLUDE\UM\WINVER.H
C:\PROGRAM FILES (X86)\WINDOWS KITS\8.1\INCLUDE\SHARED\SPECSTRINGS.H
C:\PROGRAM FILES (X86)\MICROSOFT VISUAL STUDIO 14.0\VC\INCLUDE\SAL.H
C:\PROGRAM FILES (X86)\MICROSOFT VISUAL STUDIO 14.0\VC\INCLUDE\CONCURRENCYSAL.H
C:\PROGRAM FILES (X86)\WINDOWS KITS\8.1\INCLUDE\SHARED\DRIVERSPECS.H
C:\PROGRAM FILES (X86)\WINDOWS KITS\8.1\INCLUDE\SHARED\SDV_DRIVERSPECS.H
C:\PROGRAM FILES (X86)\WINDOWS KITS\8.1\INCLUDE\UM\VERRSRC.H
C:\CICD\GITREPO_4\INHERITANCE\INHERITANCE\RES\INHERITANCE.RC2
C:\PROGRAM FILES (X86)\MICROSOFT VISUAL STUDIO 14.0\VC\ATLMFC\INCLUDE\AFXRES.RC
C:\PROGRAM FILES (X86)\MICROSOFT VISUAL STUDIO 14.0\VC\ATLMFC\INCLUDE\AFXPRINT.RC
C:\CICD\GITREPO_4\INHERITANCE\INHERITANCE\RES\INHERITANCE.ICO
C:\CICD\GITREPO_4\INHERITANCE\INHERITANCE\RES\INHERITANCEDOC.ICO
C:\CICD\GITREPO_4\INHERITANCE\INHERITANCE\RES\TOOLBAR.BMP
C:\CICD\GITREPO_4\INHERITANCE\INHERITANCE\RES\TOOLBAR256.BMP
